Assignment 2
…
# Assignment 2: http://cse6242.gatech.edu/fall-2017/hw2/
# To compile R Markdown in terminal run: Rscript -e "rmarkdown::render('hw2.Rmd', clean=TRUE)"
# To create zip file: zip hw2.zip hw2.Rmd hw2_report.pdf

require(ggplot2)

## Loading required package: ggplot2

data(midwest)

df = midwest[, c('PID', 'county', 'state', 'percprof')]
print(df)

## # A tibble: 437 x 4
##      PID    county state  percprof
##    <int>     <chr> <chr>     <dbl>
##  1   561     ADAMS    IL  4.355859
##  2   562 ALEXANDER    IL  2.870315
##  3   563      BOND    IL  4.488572
##  4   564     BOONE    IL  4.197800
##  5   565     BROWN    IL  3.367680
##  6   566    BUREAU    IL  3.275891
##  7   567   CALHOUN    IL  3.209601
##  8   568   CARROLL    IL  3.055727
##  9   569      CASS    IL  3.206799
## 10   570 CHAMPAIGN    IL 17.757448
## # ... with 427 more rows
…
A second interesting note is that the range varies by state as well. While Michigan has a lowwer median than Indiana, it has the highest maximum and a large range. Wisconsin, on the other hand, has a relatively low range.

The state with the lowest and highest percentage of population with a professional education are Ohio and Indiana, respectively, looking strictly at medians. We can also revisit this by comparing distributions directly.

Question 2: School and College Education by State

To compare perchsd and percollege, percentage of population with high school diploma and college education, respectively with state, we will again use density plots.

To compare percsd to percollege directly, we will use a scatter plot, grouped at the state level to see if there are any state level trends.

df = midwest[, c('PID', 'county', 'state', 'perchsd', 'percollege')]
print(df)

## # A tibble: 437 x 5
##      PID    county state  perchsd percollege
##    <int>     <chr> <chr>    <dbl>      <dbl>
##  1   561     ADAMS    IL 75.10740   19.63139
##  2   562 ALEXANDER    IL 59.72635   11.24331
##  3   563      BOND    IL 69.33499   17.03382
##  4   564     BOONE    IL 75.47219   17.27895
##  5   565     BROWN    IL 68.86152   14.47600
##  6   566    BUREAU    IL 76.62941   18.90462
##  7   567   CALHOUN    IL 62.82445   11.91739
##  8   568   CARROLL    IL 75.95160   16.19712
##  9   569      CASS    IL 72.27195   14.10765
## 10   570 CHAMPAIGN    IL 87.49935   41.29581
## # ... with 427 more rows
…
For this problem, we chose three file types: 1. png 2. bmp 3. jpeg

Immediately, we can see that png images are much much bigger than bmp and jpeg. This makes sense since png is a lossless file type, so it will generally be bigger than bmp or jpeg. Also, the file size does not seem to vary much between different values of n between 1 and 10,000.

Question 5: Diamonds

data(diamonds)
df = diamonds[, c('color', 'carat', 'price')]
print(df)

## # A tibble: 53,940 x 3
##    color carat price
##    <ord> <dbl> <int>
##  1     E  0.23   326
##  2     E  0.21   326
##  3     E  0.23   327
##  4     I  0.29   334
##  5     J  0.31   335
##  6     J  0.24   336
##  7     I  0.24   336
##  8     H  0.26   337
##  9     E  0.22   337
## 10     H  0.23   338
## # ... with 53,930 more rows
…
